[gd_scene load_steps=5 format=2]

[ext_resource path="res://sprites/house/sink/sink_0.png" type="Texture" id=1]
[ext_resource path="res://sprites/house/sink/sink_1.png" type="Texture" id=2]

[sub_resource type="SpriteFrames" id=1]
animations = [ {
"frames": [ ExtResource( 1 ), ExtResource( 2 ) ],
"loop": true,
"name": "default",
"speed": 1.0
} ]

[sub_resource type="RectangleShape2D" id=2]
extents = Vector2( 15.8726, 5.91992 )

[node name="sink" type="AnimatedSprite"]
frames = SubResource( 1 )
playing = true

[node name="StaticBody2D" type="StaticBody2D" parent="."]

[node name="CollisionShape2D" type="CollisionShape2D" parent="StaticBody2D"]
position = Vector2( -3.8147e-06, 1.96863 )
shape = SubResource( 2 )
