[gd_resource type="Theme" load_steps=5 format=2]

[ext_resource path="res://UI_gfx/btn.png" type="Texture" id=1]
[ext_resource path="res://UI_gfx/btn_selected.png" type="Texture" id=2]

[sub_resource type="StyleBoxTexture" id=1]
texture = ExtResource( 1 )
region_rect = Rect2( 0, 0, 256, 128 )

[sub_resource type="StyleBoxTexture" id=2]
texture = ExtResource( 2 )
region_rect = Rect2( 0, 0, 256, 128 )

[resource]
Button/colors/font_color = Color( 0.88, 0.88, 0.88, 1 )
Button/colors/font_color_disabled = Color( 0.9, 0.9, 0.9, 0.2 )
Button/colors/font_color_hover = Color( 0.94, 0.94, 0.94, 1 )
Button/colors/font_color_pressed = Color( 1, 1, 1, 1 )
Button/constants/hseparation = 2
Button/fonts/font = null
Button/styles/disabled = null
Button/styles/focus = null
Button/styles/hover = SubResource( 1 )
Button/styles/normal = SubResource( 2 )
Button/styles/pressed = null
