[gd_scene load_steps=4 format=2]

[ext_resource path="res://sprites/vfx/sneeze.png" type="Texture" id=1]
[ext_resource path="res://objects/sneeze/sneeze.gd" type="Script" id=2]

[sub_resource type="CapsuleShape2D" id=1]
radius = 41.6545
height = 5.93322

[node name="sneeze" type="Area2D" groups=[
"sneeze",
]]
script = ExtResource( 2 )

[node name="hitbox" type="CollisionShape2D" parent="."]
shape = SubResource( 1 )

[node name="CPUParticles2D" type="CPUParticles2D" parent="."]
position = Vector2( 0.841282, -0.166441 )
amount = 500
lifetime = 1.3
explosiveness = 0.58
lifetime_randomness = 0.49
draw_order = 1
texture = ExtResource( 1 )
emission_shape = 1
emission_sphere_radius = 0.79
gravity = Vector2( 0, 20 )
angular_velocity = 108.39
angular_velocity_random = 0.56
linear_accel = 40.85
linear_accel_random = 0.12
radial_accel = 15.0
radial_accel_random = 0.12
tangential_accel = 34.41
damping = 3.0
angle_random = 0.22
scale_amount = 0.4
scale_amount_random = 0.34
color = Color( 0.360784, 0.972549, 0.254902, 1 )
hue_variation = 0.11
hue_variation_random = 0.48

[node name="CPUParticles2D2" type="CPUParticles2D" parent="."]
position = Vector2( 0.841282, -0.166441 )
scale = Vector2( 1, -1 )
amount = 500
lifetime = 1.3
explosiveness = 0.58
lifetime_randomness = 0.49
draw_order = 1
texture = ExtResource( 1 )
emission_shape = 1
emission_sphere_radius = 0.79
gravity = Vector2( 0, 20 )
angular_velocity = 108.39
angular_velocity_random = 0.56
linear_accel = 40.85
linear_accel_random = 0.12
radial_accel = 15.0
radial_accel_random = 0.12
tangential_accel = 34.41
damping = 3.0
angle_random = 0.22
scale_amount = 0.4
scale_amount_random = 0.34
color = Color( 0.360784, 0.972549, 0.254902, 1 )
hue_variation = 0.11
hue_variation_random = 0.48

[node name="Timer" type="Timer" parent="."]
process_mode = 0
wait_time = 1.3
one_shot = true
autostart = true
[connection signal="timeout" from="Timer" to="." method="_on_Timer_timeout"]
